{
	"id": "com.fc2.blog23.zawakei.app.test.phonegaptestcmd",
	"version": "1.0.0",
	"vendor": "hankei6km",
	"type": "web",
	"main": "index.html",
	"title": "PhoneGapTestCmd",
	"icon": "icon.png",
	"uiRevision": 2
}
